Complex Sampling Design in National Health and Morbidity Survey (NHMS)
…
pop_mydist

# A tibble: 6,720 × 7
   state district   date       gender age   ethnicity population
   <chr> <chr>      <date>     <fct>  <chr> <fct>          <dbl>
 1 Johor Batu Pahat 2023-01-01 Male   20-24 Malay          15600
 2 Johor Batu Pahat 2023-01-01 Male   30-34 Malay          13400
 3 Johor Batu Pahat 2023-01-01 Male   35-39 Malay          13300
 4 Johor Batu Pahat 2023-01-01 Male   40-44 Malay          11700
 5 Johor Batu Pahat 2023-01-01 Male   45-49 Malay           9100
 6 Johor Batu Pahat 2023-01-01 Male   50-54 Malay           8200
 7 Johor Batu Pahat 2023-01-01 Male   55-59 Malay           7500
 8 Johor Batu Pahat 2023-01-01 Female 20-24 Malay          15000
 9 Johor Batu Pahat 2023-01-01 Female 30-34 Malay          13000
10 Johor Batu Pahat 2023-01-01 Female 35-39 Malay          13000
# ℹ 6,710 more rows
…
Total Population by Post-strat Group

ps_pop <- pop_mydist %>% 
  mutate(agegp = case_when(age %in% c("20-24", "24-29") ~ "20-29", 
                          age %in% c("30-34", "35-39") ~ "30-39", 
                          age %in% c("40-44", "45-49") ~ "40-49", 
                          age %in% c("50-54", "55-59") ~ "50-59")) %>% 
  group_by(gender, agegp, ethnicity) %>% 
  summarise(population = sum(population), 
            .groups = "drop")

ps_pop %>% 
  mutate(popcoma = scales::label_comma()(population))

# A tibble: 24 × 5
   gender agegp ethnicity population popcoma  
   <fct>  <chr> <fct>          <dbl> <chr>    
 1 Female 20-29 Malay         777700 777,700  
 2 Female 20-29 Chinese       241200 241,200  
 3 Female 20-29 Indian         76800 76,800   
 4 Female 30-39 Malay        1445300 1,445,300
 5 Female 30-39 Chinese       529300 529,300  
 6 Female 30-39 Indian        166100 166,100  
 7 Female 40-49 Malay        1101900 1,101,900
 8 Female 40-49 Chinese       515800 515,800  
 9 Female 40-49 Indian        146700 146,700  
10 Female 50-59 Malay         799700 799,700  
# ℹ 14 more rows
…
Post-stratification Adjustment (PS)

The adjusted weight is attached back to our dataset, and post-stratification weight is calculated using survey and srvyr package.

ps_weight

# A tibble: 24 × 8
   gender agegp ethnicity     n ps_adw population   fps final_weight
   <chr>  <chr> <chr>     <int>  <dbl>      <dbl> <dbl>        <dbl>
 1 Female 20-29 Chinese      15   8220     241200  29.3      0.0341 
 2 Female 20-29 Indian        6   3380      76800  22.7      0.0440 
 3 Female 20-29 Malay        21  14380     777700  54.1      0.0185 
 4 Female 30-39 Chinese      16  10420     529300  50.8      0.0197 
 5 Female 30-39 Indian        6   4560     166100  36.4      0.0275 
 6 Female 30-39 Malay        19  15420    1445300  93.7      0.0107 
 7 Female 40-49 Chinese       4   1840     515800 280.       0.00357
 8 Female 40-49 Indian        8   3820     146700  38.4      0.0260 
 9 Female 40-49 Malay        33  21300    1101900  51.7      0.0193 
10 Female 50-59 Chinese      14   8020     428200  53.4      0.0187 
# ℹ 14 more rows

Attaching Final Weight to Dataset

The final weight is attached to the dataset for further analysis.

simnhmsds_weight <-  simnhmsds_final %>% 
  left_join(., 
            ps_weight %>% 
              select(gender, agegp, ethnicity, final_weight), 
            by = join_by(gender, agegp, ethnicity))

simnhmsds_weight

# A tibble: 356 × 15
   success    id zone  state district gender   age agegp ethnicity height weight
     <dbl> <int> <chr> <chr> <chr>    <chr>  <int> <chr> <chr>      <int>  <dbl>
 1       1     1 Born… Sara… Pusa     Male      28 20-29 Chinese      163   56.7
 2       1     2 Born… Sara… Pusa     Female    53 50-59 Indian       164   63.2
 3       1     3 Born… Sara… Pusa     Female    53 50-59 Chinese      164   71.1
 4       1     4 Born… Sara… Pusa     Female    39 40-49 Malay        164   76.7
 5       1     6 Born… Sara… Pusa     Male      28 20-29 Malay        168   71.5
 6       1     7 Born… Sara… Pusa     Male      28 20-29 Chinese      164   63.9
 7       1     8 Born… Sara… Pusa     Female    51 50-59 Indian       167   66.9
 8       1     9 Born… Sara… Pusa     Male      23 20-29 Chinese      164   64.4
 9       1    10 Born… Sara… Pusa     Male      23 20-29 Malay        166   79.3
10       1    11 Born… Sara… Pusa     Female    47 40-49 Malay        164   73.3
# ℹ 346 more rows
# ℹ 4 more variables: PAhour <int>, hba1c <dbl>, dm_dx <int>,
#   final_weight <dbl>
…
